{
  "id": "1",
  "opportunity":{
		"id":"createFilter",
		"branchCode":3152,
	  "salesUnit":"abc"
	},
  "participants": [
    {
      "participantType": {
        "order": "2",
        "id": "TIT"
      },
      "participantId": "ES0182998504152P",
      "firstName": "Alcampo S.A.",
      "creditInformation": "información crediticia",
      "judicialInformation": "judicialinformation",
      "raiInformation": "raiinformation",
      "isQuestionable": true,
      "riskFilters": [
        {
          "description": "Cuenta en mora/suspenso histórica no vigente",
          "type": "Interno",
          "bureau": "bureau",
          "bureauDescription": "bureauDescription",
          "informationType": "informationtype",
          "numberFilter": 1,
          "amount": {
            "amount": 3748.09
          },
          "dateFilter": "1979-03-20"
        },
        {
          "description": "Cuenta en mora/suspenso actual vigente",
          "type": "Externo",
          "bureau": "bureau",
          "bureauDescription": "bureauDescription",
          "informationType": "informationtype",
          "numberFilter": 10,
          "amount": {
            "amount": 22067.22
          },
          "dateFilter": "2016-11-25"
        }
      ]
    },
    {
      "participantType": {
        "order": "2",
        "id": "TIT"
      },
      "participantId": "ES0182998504152P",
      "firstName": "Metalurgia del Norte S.A.",
      "creditInformation": "información crediticia",
      "judicialInformation": "judicialinformation",
      "raiInformation": "raiinformation",
      "isQuestionable": true,
      "riskFilters": [
        {
          "description": "Operaciones inicialmente denegadas",
          "type": "Interno",
          "bureau": "bureau",
          "bureauDescription": "bureauDescription",
          "informationType": "informationtype",
          "numberFilter": 10,
          "amount": {
            "amount": 53876
          },
          "dateFilter": "1979-03-20"
        },
        {
          "description": "RAI",
          "type": "Externo",
          "bureau": "bureau",
          "bureauDescription": "bureauDescription",
          "informationType": "informationtype",
          "numberFilter": 1,
          "amount": {
            "amount": 8581.88
          },
          "dateFilter": "2016-11-25"
        }
      ]
    }
  ]
}
